Data Manipulation with dplyr
…
pups_data = read_csv("./data/FAS_pups.csv",
  col_types = "ciiiii")
pups_data = janitor::clean_names(pups_data)

select

For a given analysis, you may only need a subset of the columns in a data table; extracting only what you need can helpfully de-clutter, especially when you have large datasets. Select columns using select.

You can specify the columns you want to keep by naming all of them:

select(litters_data, group, litter_number, gd0_weight, pups_born_alive)
## # A tibble: 49 x 4
##   group litter_number gd0_weight pups_born_alive
##   <chr> <chr>              <dbl>           <int>
## 1 Con7  #85                 19.7               3
## 2 Con7  #1/2/95/2           27                 8
## 3 Con7  #5/5/3/83/3-3       26                 6
## # … with 46 more rows

You can specify the specify a range of columns to keep:

select(litters_data, group:gd_of_birth)
## # A tibble: 49 x 5
##   group litter_number gd0_weight gd18_weight gd_of_birth
##   <chr> <chr>              <dbl>       <dbl>       <int>
## 1 Con7  #85                 19.7        34.7          20
## 2 Con7  #1/2/95/2           27          42            19
## 3 Con7  #5/5/3/83/3-3       26          41.4          19
## # … with 46 more rows

You can also specify columns you’d like to remove:

select(litters_data, -pups_survive)
## # A tibble: 49 x 7
##   group litter_number gd0_weight gd18_weight gd_of_birth pups_born_alive
##   <chr> <chr>              <dbl>       <dbl>       <int>           <int>
## 1 Con7  #85                 19.7        34.7          20               3
## 2 Con7  #1/2/95/2           27          42            19               8
## 3 Con7  #5/5/3/83/3-3       26          41.4          19               6
## # … with 46 more rows, and 1 more variable: pups_dead_birth <int>

You can rename variables as part of this process:

select(litters_data, GROUP = group, LiTtEr_NuMbEr = litter_number)
## # A tibble: 49 x 2
##   GROUP LiTtEr_NuMbEr
##   <chr> <chr>        
## 1 Con7  #85          
## 2 Con7  #1/2/95/2    
## 3 Con7  #5/5/3/83/3-3
## # … with 46 more rows

If all you want to do is rename something, you can use rename instead of select. This will rename the variables you care about, and keep everything else:

rename(litters_data, GROUP = group, LiTtEr_NuMbEr = litter_number)
## # A tibble: 49 x 8
##   GROUP LiTtEr_NuMbEr gd0_weight gd18_weight gd_of_birth pups_born_alive
##   <chr> <chr>              <dbl>       <dbl>       <int>           <int>
## 1 Con7  #85                 19.7        34.7          20               3
## 2 Con7  #1/2/95/2           27          42            19               8
## 3 Con7  #5/5/3/83/3-3       26          41.4          19               6
## # … with 46 more rows, and 2 more variables: pups_dead_birth <int>,
## #   pups_survive <int>

There are some handy helper functions for select; read about all of them using ?select_helpers. I use starts_with(), ends_with(), and contains() often, especially when there variables are named with suffixes or other standard patterns:

select(litters_data, starts_with("gd"))
## # A tibble: 49 x 3
##   gd0_weight gd18_weight gd_of_birth
##        <dbl>       <dbl>       <int>
## 1       19.7        34.7          20
## 2       27          42            19
## 3       26          41.4          19
## # … with 46 more rows

I also frequently use is everything(), which is handy for reorganizing columns without discarding anything:

select(litters_data, litter_number, pups_survive, everything())
## # A tibble: 49 x 8
##   litter_number pups_survive group gd0_weight gd18_weight gd_of_birth
##   <chr>                <int> <chr>      <dbl>       <dbl>       <int>
## 1 #85                      3 Con7        19.7        34.7          20
## 2 #1/2/95/2                7 Con7        27          42            19
## 3 #5/5/3/83/3-3            5 Con7        26          41.4          19
## # … with 46 more rows, and 2 more variables: pups_born_alive <int>,
## #   pups_dead_birth <int>

relocate does a similar thing (and is sort of like rename in that it’s handy but not critical):

relocate(litters_data, litter_number, pups_survive)
## # A tibble: 49 x 8
##   litter_number pups_survive group gd0_weight gd18_weight gd_of_birth
##   <chr>                <int> <chr>      <dbl>       <dbl>       <int>
## 1 #85                      3 Con7        19.7        34.7          20
## 2 #1/2/95/2                7 Con7        27          42            19
## 3 #5/5/3/83/3-3            5 Con7        26          41.4          19
## # … with 46 more rows, and 2 more variables: pups_born_alive <int>,
## #   pups_dead_birth <int>

In larger datasets,

Lastly, like other functions in dplyr, select will export a dataframe even if you only select one column. Mostly this is fine, but sometimes you want the vector stored in the column. To pull a single variable, use pull.

Learning Assessment: In the pups data, select the columns containing litter number, sex, and PD ears.

 Solution 

The chunk below performs this action:

select(pups_data, litter_number, sex, pd_ears)
## # A tibble: 313 x 3
##   litter_number   sex pd_ears
##   <chr>         <int>   <int>
## 1 #85               1       4
## 2 #85               1       4
## 3 #1/2/95/2         1       5
## # … with 310 more rows
…
Filtering can be helpful for limiting a dataset to only those observations needed for an analysis. However, I recommend against the creation of many data subsets (e.g. one for each group). This can clutter up your workspace, and we’ll see good tools for the analysis of subsets before long.

Learning Assessment: In the pups data:

Filter to include only pups with sex 1

Filter to include only pups with PD walk less than 11 and sex 2

 Solution 

The chunk below performs these actions:

filter(pups_data, sex == 1)
## # A tibble: 155 x 6
##   litter_number   sex pd_ears pd_eyes pd_pivot pd_walk
##   <chr>         <int>   <int>   <int>    <int>   <int>
## 1 #85               1       4      13        7      11
## 2 #85               1       4      13        7      12
## 3 #1/2/95/2         1       5      13        7       9
## # … with 152 more rows
filter(pups_data, sex == 2, pd_walk < 11)
## # A tibble: 127 x 6
##   litter_number   sex pd_ears pd_eyes pd_pivot pd_walk
##   <chr>         <int>   <int>   <int>    <int>   <int>
## 1 #1/2/95/2         2       4      13        7       9
## 2 #1/2/95/2         2       4      13        7      10
## 3 #1/2/95/2         2       5      13        8      10
## # … with 124 more rows

mutate

Sometimes you need to select columns; sometimes you need to change them or create new ones. You can do this using mutate.

The example below creates a new variable measuring the difference between gd18_weight and gd0_weight and modifies the existing group variable.

mutate(litters_data,
  wt_gain = gd18_weight - gd0_weight,
  group = str_to_lower(group)
)
## # A tibble: 49 x 9
##   group litter_number gd0_weight gd18_weight gd_of_birth pups_born_alive
##   <chr> <chr>              <dbl>       <dbl>       <int>           <int>
## 1 con7  #85                 19.7        34.7          20               3
## 2 con7  #1/2/95/2           27          42            19               8
## 3 con7  #5/5/3/83/3-3       26          41.4          19               6
## # … with 46 more rows, and 3 more variables: pups_dead_birth <int>,
## #   pups_survive <int>, wt_gain <dbl>
…
Creating a new variable that does exactly what you need can be a challenge; the more functions you know about, the easier this gets.

Learning Assessment: In the pups data:

Create a variable that subtracts 7 from PD pivot

Create a variable that is the sum of all the PD variables

 Solution 

The chunk below performs these actions:

mutate(pups_data, pivot_minus7 = pd_pivot - 7)
## # A tibble: 313 x 7
##   litter_number   sex pd_ears pd_eyes pd_pivot pd_walk pivot_minus7
##   <chr>         <int>   <int>   <int>    <int>   <int>        <dbl>
## 1 #85               1       4      13        7      11            0
## 2 #85               1       4      13        7      12            0
## 3 #1/2/95/2         1       5      13        7       9            0
## # … with 310 more rows
mutate(pups_data, pd_sum = pd_ears + pd_eyes + pd_pivot + pd_walk)
## # A tibble: 313 x 7
##   litter_number   sex pd_ears pd_eyes pd_pivot pd_walk pd_sum
##   <chr>         <int>   <int>   <int>    <int>   <int>  <int>
## 1 #85               1       4      13        7      11     35
## 2 #85               1       4      13        7      12     36
## 3 #1/2/95/2         1       5      13        7       9     34
## # … with 310 more rows
…
The following is an example of the first option:

litters_data_raw = read_csv("./data/FAS_litters.csv",
  col_types = "ccddiiii")
litters_data_clean_names = janitor::clean_names(litters_data_raw)
litters_data_selected_cols = select(litters_data_clean_names, -pups_survive)
litters_data_with_vars = 
  mutate(
    litters_data_selected_cols, 
    wt_gain = gd18_weight - gd0_weight,
    group = str_to_lower(group))
litters_data_with_vars_without_missing = 
  drop_na(litters_data_with_vars, wt_gain)
litters_data_with_vars_without_missing
## # A tibble: 31 x 8
##   group litter_number gd0_weight gd18_weight gd_of_birth pups_born_alive
##   <chr> <chr>              <dbl>       <dbl>       <int>           <int>
## 1 con7  #85                 19.7        34.7          20               3
## 2 con7  #1/2/95/2           27          42            19               8
## 3 con7  #5/5/3/83/3-3       26          41.4          19               6
## # … with 28 more rows, and 2 more variables: pups_dead_birth <int>,
## #   wt_gain <dbl>
…
litters_data_clean
## # A tibble: 31 x 8
##   group litter_number gd0_weight gd18_weight gd_of_birth pups_born_alive
##   <chr> <chr>              <dbl>       <dbl>       <int>           <int>
## 1 con7  #85                 19.7        34.7          20               3
## 2 con7  #1/2/95/2           27          42            19               8
## 3 con7  #5/5/3/83/3-3       26          41.4          19               6
## # … with 28 more rows, and 2 more variables: pups_dead_birth <int>,
## #   wt_gain <dbl>
These are both confusing and bad: the first gets confusing and clutters our workspace, and the second has to be read inside out.

Piping solves this problem. It allows you to turn the nested approach into a sequential chain by passing the result of one function call as an argument to the next function call:

litters_data = 
  read_csv("./data/FAS_litters.csv", col_types = "ccddiiii") %>%
  janitor::clean_names() %>%
  select(-pups_survive) %>%
  mutate(
    wt_gain = gd18_weight - gd0_weight,
    group = str_to_lower(group)) %>% 
  drop_na(wt_gain)

litters_data
## # A tibble: 31 x 8
##   group litter_number gd0_weight gd18_weight gd_of_birth pups_born_alive
##   <chr> <chr>              <dbl>       <dbl>       <int>           <int>
## 1 con7  #85                 19.7        34.7          20               3
## 2 con7  #1/2/95/2           27          42            19               8
## 3 con7  #5/5/3/83/3-3       26          41.4          19               6
## # … with 28 more rows, and 2 more variables: pups_dead_birth <int>,
## #   wt_gain <dbl>
…
removes the PD ears variable

creates a variable that indicates whether PD pivot is 7 or more days

 Solution 

The chunk below performs these actions:

read_csv("./data/FAS_pups.csv", col_types = "ciiiii") %>%
  janitor::clean_names() %>% 
  filter(sex == 1) %>% 
  select(-pd_ears) %>% 
  mutate(pd_pivot_gt7 = pd_pivot > 7)
## # A tibble: 155 x 6
##   litter_number   sex pd_eyes pd_pivot pd_walk pd_pivot_gt7
##   <chr>         <int>   <int>    <int>   <int> <lgl>       
## 1 #85               1      13        7      11 FALSE       
## 2 #85               1      13        7      12 FALSE       
## 3 #1/2/95/2         1      13        7       9 FALSE       
## # … with 152 more rows
…
