Data Import
…
 Solution 

For me, loading the data with absolute and relative paths might look like the following:

pups_data = read_csv(file = "./data/FAS_pups.csv")
pups_data = read_csv(file = "~/Desktop/data_wranging_i/data/FAS_litters.csv")

If I move the directory holding this example, the relatitve path works and the absolute path is broken.

Looking at data

The first thing to do after importing the data (unless read_csv gives warnings) is to look at it. If there are unexpected results during data import, you’ll catch a lot of them here. In addition to printing the data (which is my first step), I often use View / view, str, head, and tail:

litters_data
## # A tibble: 49 × 8
##    group litter_number   gd0_weight gd18_weight gd_of_birth pups_born_alive
##    <chr> <chr>                <dbl>       <dbl>       <dbl>           <dbl>
##  1 Con7  #85                   19.7        34.7          20               3
##  2 Con7  #1/2/95/2             27          42            19               8
##  3 Con7  #5/5/3/83/3-3         26          41.4          19               6
##  4 Con7  #5/4/2/95/2           28.5        44.1          19               5
##  5 Con7  #4/2/95/3-3           NA          NA            20               6
##  6 Con7  #2/2/95/3-2           NA          NA            20               6
##  7 Con7  #1/5/3/83/3-3/2       NA          NA            20               9
##  8 Con8  #3/83/3-3             NA          NA            20               9
##  9 Con8  #2/95/3               NA          NA            20               8
## 10 Con8  #3/5/2/2/95           28.5        NA            20               8
## # … with 39 more rows, and 2 more variables: pups_dead_birth <dbl>,
## #   pups_survive <dbl>
…
Column parsing also allows a shorthand for almost every data type.

litters_data = read_csv(file = "./data/FAS_litters.csv",
  col_types = "ccddiiii"
)
litters_data
## # A tibble: 49 × 8
##    Group `Litter Number` `GD0 weight` `GD18 weight` `GD of Birth`
##    <chr> <chr>                  <dbl>         <dbl>         <int>
##  1 Con7  #85                     19.7          34.7            20
##  2 Con7  #1/2/95/2               27            42              19
##  3 Con7  #5/5/3/83/3-3           26            41.4            19
##  4 Con7  #5/4/2/95/2             28.5          44.1            19
##  5 Con7  #4/2/95/3-3             NA            NA              20
##  6 Con7  #2/2/95/3-2             NA            NA              20
##  7 Con7  #1/5/3/83/3-3/2         NA            NA              20
##  8 Con8  #3/83/3-3               NA            NA              20
##  9 Con8  #2/95/3                 NA            NA              20
## 10 Con8  #3/5/2/2/95             28.5          NA              20
## # … with 39 more rows, and 3 more variables: Pups born alive <int>,
## #   Pups dead @ birth <int>, Pups survive <int>
…
