Linear models
…
Borough: Bronx
-90.254
0.000

As an aside, broom::tidy works with lots of things, including most of the functions for model fitting you’re likely to run into (survival, mixed models, additive models, …).

Diagnostics

Regression diagnostics can identify issues in model fit, especially related to certain failures in model assumptions. Examining residuals and fitted values are therefore an imporant component of any modeling exercise.

The modelr package can be used to add residuals and fitted values to a dataframe.

modelr::add_residuals(nyc_airbnb, fit)

## # A tibble: 40,492 x 6
##    price stars borough neighborhood room_type        resid
##    <dbl> <dbl> <fct>   <chr>        <fct>            <dbl>
##  1    99   5   Bronx   City Island  Private room      9.47
##  2   200  NA   Bronx   City Island  Private room     NA   
##  3   300  NA   Bronx   City Island  Entire home/apt  NA   
##  4   125   5   Bronx   City Island  Entire home/apt  35.5 
##  5    69   5   Bronx   City Island  Private room    -20.5 
##  6   125   5   Bronx   City Island  Entire home/apt  35.5 
##  7    85   5   Bronx   City Island  Entire home/apt  -4.53
##  8    39   4.5 Bronx   Allerton     Private room    -34.5 
##  9    95   5   Bronx   Allerton     Entire home/apt   5.47
## 10   125   4.5 Bronx   Allerton     Entire home/apt  51.5 
## # … with 40,482 more rows

modelr::add_predictions(nyc_airbnb, fit)

## # A tibble: 40,492 x 6
##    price stars borough neighborhood room_type        pred
##    <dbl> <dbl> <fct>   <chr>        <fct>           <dbl>
##  1    99   5   Bronx   City Island  Private room     89.5
##  2   200  NA   Bronx   City Island  Private room     NA  
##  3   300  NA   Bronx   City Island  Entire home/apt  NA  
##  4   125   5   Bronx   City Island  Entire home/apt  89.5
##  5    69   5   Bronx   City Island  Private room     89.5
##  6   125   5   Bronx   City Island  Entire home/apt  89.5
##  7    85   5   Bronx   City Island  Entire home/apt  89.5
##  8    39   4.5 Bronx   Allerton     Private room     73.5
##  9    95   5   Bronx   Allerton     Entire home/apt  89.5
## 10   125   4.5 Bronx   Allerton     Entire home/apt  73.5
## # … with 40,482 more rows
…
victim_sexMale
-0.880
0.415
0.000

Homicides in which the victim is black are substantially less likely to be resolved that those in which the victim is white; for other races the effects are not significant, possible due to small sample sizes. Homicides in which the victim is male are significantly less like to be resolved than those in which the victim is female. The effect of age is statistically significant, but careful data inspections should be conducted before interpreting too deeply.

We can also compute fitted values; similarly to the estimates in the model summary, these are expressed as log odds and can be transformed to produce probabilities for each subject.

baltimore_df %>% 
  modelr::add_predictions(fit_logistic) %>% 
  mutate(fitted_prob = boot::inv.logit(pred))

## # A tibble: 2,827 x 6
##    resolved victim_age victim_race victim_sex    pred fitted_prob
##       <dbl>      <dbl> <fct>       <chr>        <dbl>       <dbl>
##  1        0         17 Black       Male       -0.654        0.342
##  2        0         26 Black       Male       -0.720        0.327
##  3        0         21 Black       Male       -0.683        0.335
##  4        1         61 White       Male       -0.131        0.467
##  5        1         46 Black       Male       -0.864        0.296
##  6        1         27 Black       Male       -0.727        0.326
##  7        1         21 Black       Male       -0.683        0.335
##  8        1         16 Black       Male       -0.647        0.344
##  9        1         21 Black       Male       -0.683        0.335
## 10        1         44 Black       Female      0.0297       0.507
## # … with 2,817 more rows
…
