Reading data from the web
…
I won’t print the table here, but if you look at it you’ll notice a problem: the “note” at the bottom of the table appears in every column in the first row. We need to remove that; I’ll also convert to a tibble so that things print nicely.

table_marj = 
  drug_use_html %>% 
  html_nodes(css = "table") %>% 
  first() %>% 
  html_table() %>%
  slice(-1) %>% 
  as_tibble()

table_marj

## # A tibble: 56 x 16
##    State `12+(2013-2014)` `12+(2014-2015)` `12+(P Value)` `12-17(2013-201…
##    <chr> <chr>            <chr>            <chr>          <chr>           
##  1 Tota… 12.90a           13.36            0.002          13.28b          
##  2 Nort… 13.88a           14.66            0.005          13.98           
##  3 Midw… 12.40b           12.76            0.082          12.45           
##  4 South 11.24a           11.64            0.029          12.02           
##  5 West  15.27            15.62            0.262          15.53a          
##  6 Alab… 9.98             9.60             0.426          9.90            
##  7 Alas… 19.60a           21.92            0.010          17.30           
##  8 Ariz… 13.69            13.12            0.364          15.12           
##  9 Arka… 11.37            11.59            0.678          12.79           
## 10 Cali… 14.49            15.25            0.103          15.03           
## # … with 46 more rows, and 11 more variables: `12-17(2014-2015)` <chr>,
## #   `12-17(P Value)` <chr>, `18-25(2013-2014)` <chr>, `18-25(2014-2015)` <chr>,
## #   `18-25(P Value)` <chr>, `26+(2013-2014)` <chr>, `26+(2014-2015)` <chr>,
## #   `26+(P Value)` <chr>, `18+(2013-2014)` <chr>, `18+(2014-2015)` <chr>,
## #   `18+(P Value)` <chr>
…
