Tidy data and relational datasets
…
pivot_longer

In data import, we used the haven package to load the PULSE biomarkers dataset from a .sas7bdat. Let’s reload those data and take a closer look:

pulse_df = 
  haven::read_sas("./data/public_pulse_data.sas7bdat") %>%
  janitor::clean_names()

pulse_df
## # A tibble: 1,087 × 7
##      id   age sex   bdi_score_bl bdi_score_01m bdi_score_06m bdi_score_12m
##   <dbl> <dbl> <chr>        <dbl>         <dbl>         <dbl>         <dbl>
## 1 10003  48.0 male             7             1             2             0
## 2 10015  72.5 male             6            NA            NA            NA
## 3 10022  58.5 male            14             3             8            NA
## 4 10026  72.7 male            20             6            18            16
## 5 10035  60.4 male             4             0             1             2
## # … with 1,082 more rows

With our new understanding of tidy data, we quickly recognize a problem: the BDI score is spread across four columns, which correspond to four observation times. We can fix this problem using pivot_longer:

pulse_tidy_data = 
  pivot_longer(
    pulse_df, 
    bdi_score_bl:bdi_score_12m,
    names_to = "visit", 
    values_to = "bdi")

pulse_tidy_data
## # A tibble: 4,348 × 5
##      id   age sex   visit           bdi
##   <dbl> <dbl> <chr> <chr>         <dbl>
## 1 10003  48.0 male  bdi_score_bl      7
## 2 10003  48.0 male  bdi_score_01m     1
## 3 10003  48.0 male  bdi_score_06m     2
## 4 10003  48.0 male  bdi_score_12m     0
## 5 10015  72.5 male  bdi_score_bl      6
## # … with 4,343 more rows

This looks much better! However, now visit is an issue. The original column names were informative but we probably don’t need to keep the bdi_score_ prefix in each case. I’ll use an additional option in pivot_longer to address this:

pulse_tidy_data = 
  pivot_longer(
    pulse_df, 
    bdi_score_bl:bdi_score_12m,
    names_to = "visit", 
    names_prefix = "bdi_score_",
    values_to = "bdi")

pulse_tidy_data
## # A tibble: 4,348 × 5
##      id   age sex   visit   bdi
##   <dbl> <dbl> <chr> <chr> <dbl>
## 1 10003  48.0 male  bl        7
## 2 10003  48.0 male  01m       1
## 3 10003  48.0 male  06m       2
## 4 10003  48.0 male  12m       0
## 5 10015  72.5 male  bl        6
## # … with 4,343 more rows
…
print(pulse_df, n = 12)
## # A tibble: 4,348 × 5
##    visit    id   age sex     bdi
##    <fct> <dbl> <dbl> <chr> <dbl>
##  1 00m   10003  48.0 male      7
##  2 01m   10003  48.0 male      1
##  3 06m   10003  48.0 male      2
##  4 12m   10003  48.0 male      0
##  5 00m   10015  72.5 male      6
##  6 01m   10015  72.5 male     NA
##  7 06m   10015  72.5 male     NA
##  8 12m   10015  72.5 male     NA
##  9 00m   10022  58.5 male     14
## 10 01m   10022  58.5 male      3
## 11 06m   10022  58.5 male      8
## 12 12m   10022  58.5 male     NA
## # … with 4,336 more rows
…
fas_data
## # A tibble: 313 × 15
##   litter_number sex   pd_ears pd_eyes pd_pivot pd_walk dose  day_of_tx
##   <chr>         <fct>   <dbl>   <dbl>    <dbl>   <dbl> <chr> <chr>    
## 1 #85           male        4      13        7      11 con   7        
## 2 #85           male        4      13        7      12 con   7        
## 3 #1/2/95/2     male        5      13        7       9 con   7        
## 4 #1/2/95/2     male        5      13        8      10 con   7        
## 5 #5/5/3/83/3-3 male        5      13        8      10 con   7        
## # … with 308 more rows, and 7 more variables: gd0_weight <dbl>,
## #   gd18_weight <dbl>, gd_of_birth <dbl>, pups_born_alive <dbl>,
## #   pups_dead_birth <dbl>, pups_survive <dbl>, wt_gain <dbl>
…
