Writing Functions
…
url_base = "https://www.amazon.com/product-reviews/B00005JNBQ/ref=cm_cr_arp_d_viewopt_rvwer?ie=UTF8&reviewerType=avp_only_reviews&sortBy=recent&pageNumber="
vec_urls = str_c(url_base, 1:5)

dynamite_reviews = bind_rows(
  read_page_reviews(vec_urls[1]),
  read_page_reviews(vec_urls[2]),
  read_page_reviews(vec_urls[3]),
  read_page_reviews(vec_urls[4]),
  read_page_reviews(vec_urls[5])
)

dynamite_reviews

## # A tibble: 50 x 3
##    title                               stars text                               
##    <chr>                               <dbl> <chr>                              
##  1 Great Value                             5 "Great Value"                      
##  2 I LOVE THIS MOVIE                       5 "THIS MOVIE IS SO FUNNY ONE OF MY …
##  3 Don't you wish you could go back?       5 "Watch it 100 times. Never. Gets. …
##  4 Stupid, but very funny!                 5 "If you like stupidly funny '90s t…
##  5 The beat                                5 "The best"                         
##  6 Hilarious                               5 "Super funny! Loved the online ren…
##  7 Love this movie                         5 "We love this product.  It came in…
##  8 Entertaining, limited quality           4 "Entertainment level gets a 5 star…
##  9 Boo                                     1 "We rented this movie because our …
## 10 Movie is still silly fun....amazon…     1 "We are getting really frustrated …
## # … with 40 more rows
…
